<svg width="116" height="35" viewBox="0 0 116 35" fill="none" xmlns="http://www.w3.org/2000/svg">
<path d="M50.8656 27.4284C50.8656 27.6617 50.8293 27.8653 50.7567 28.039C50.6841 28.2101 50.5817 28.3527 50.4495 28.4667C50.3173 28.5782 50.1591 28.6625 49.9751 28.7195C49.791 28.774 49.5888 28.8012 49.3684 28.8012C49.2595 28.8012 49.1389 28.796 49.0067 28.7856C48.8771 28.7779 48.7591 28.761 48.6528 28.7351V26.1217C48.7591 26.0958 48.8771 26.079 49.0067 26.0712C49.1389 26.0608 49.2595 26.0556 49.3684 26.0556C49.5888 26.0556 49.791 26.0841 49.9751 26.1412C50.1591 26.1956 50.3173 26.2799 50.4495 26.394C50.5817 26.5054 50.6841 26.648 50.7567 26.8217C50.8293 26.9929 50.8656 27.1951 50.8656 27.4284ZM49.3995 28.4706C49.7573 28.4706 50.0243 28.3799 50.2006 28.1984C50.3769 28.0143 50.4651 27.7577 50.4651 27.4284C50.4651 27.0991 50.3769 26.8438 50.2006 26.6623C50.0243 26.4782 49.7573 26.3862 49.3995 26.3862C49.2932 26.3862 49.2102 26.3875 49.1506 26.3901C49.0936 26.3927 49.0534 26.3953 49.0301 26.3979V28.459C49.0534 28.4616 49.0936 28.4641 49.1506 28.4667C49.2102 28.4693 49.2932 28.4706 49.3995 28.4706Z" fill="black"/>
<path d="M51.7752 28.7779V26.0829H53.4202V26.4056H52.1524V27.2067H53.2802V27.5217H52.1524V28.4551H53.5174V28.7779H51.7752Z" fill="black"/>
<path d="M56.5246 26.0829C56.4261 26.368 56.3315 26.6325 56.2408 26.8762C56.1526 27.1173 56.0658 27.3467 55.9802 27.5645C55.8946 27.7823 55.8091 27.991 55.7235 28.1906C55.6406 28.3877 55.555 28.5834 55.4669 28.7779H55.113C55.0248 28.5834 54.938 28.3877 54.8524 28.1906C54.7695 27.991 54.6839 27.7823 54.5958 27.5645C54.5102 27.3467 54.422 27.1173 54.3313 26.8762C54.2406 26.6325 54.1472 26.368 54.0513 26.0829H54.4674C54.6074 26.4925 54.7448 26.8866 54.8796 27.2651C55.0145 27.6436 55.1532 27.9988 55.2958 28.3306C55.4383 28.0014 55.577 27.6475 55.7119 27.269C55.8467 26.8879 55.9828 26.4925 56.1202 26.0829H56.5246Z" fill="black"/>
<path d="M57.2489 28.7779V26.0829H58.8939V26.4056H57.6262V27.2067H58.7539V27.5217H57.6262V28.4551H58.9912V28.7779H57.2489Z" fill="black"/>
<path d="M61.4423 28.4512V28.7779H59.8206V26.0829H60.1978V28.4512H61.4423Z" fill="black"/>
<path d="M61.9036 27.4284C61.9036 27.1977 61.9373 26.9941 62.0048 26.8179C62.0748 26.6416 62.1681 26.4951 62.2848 26.3784C62.404 26.2591 62.5414 26.1697 62.697 26.1101C62.8551 26.0504 63.0223 26.0206 63.1986 26.0206C63.3723 26.0206 63.5357 26.0504 63.6886 26.1101C63.8442 26.1697 63.9803 26.2591 64.097 26.3784C64.2136 26.4951 64.3057 26.6416 64.3731 26.8179C64.4431 26.9941 64.4781 27.1977 64.4781 27.4284C64.4781 27.6591 64.4431 27.8627 64.3731 28.039C64.3057 28.2153 64.2136 28.363 64.097 28.4823C63.9803 28.599 63.8442 28.6871 63.6886 28.7467C63.5357 28.8064 63.3723 28.8362 63.1986 28.8362C63.0223 28.8362 62.8551 28.8064 62.697 28.7467C62.5414 28.6871 62.404 28.599 62.2848 28.4823C62.1681 28.363 62.0748 28.2153 62.0048 28.039C61.9373 27.8627 61.9036 27.6591 61.9036 27.4284ZM62.3003 27.4284C62.3003 27.5917 62.3211 27.7408 62.3625 27.8756C62.404 28.0079 62.4623 28.1206 62.5375 28.214C62.6153 28.3073 62.7086 28.3799 62.8175 28.4317C62.929 28.481 63.0535 28.5056 63.1909 28.5056C63.3283 28.5056 63.4514 28.481 63.5603 28.4317C63.6692 28.3799 63.7612 28.3073 63.8364 28.214C63.9142 28.1206 63.9738 28.0079 64.0153 27.8756C64.0568 27.7408 64.0775 27.5917 64.0775 27.4284C64.0775 27.2651 64.0568 27.1173 64.0153 26.9851C63.9738 26.8503 63.9142 26.7362 63.8364 26.6429C63.7612 26.5495 63.6692 26.4782 63.5603 26.429C63.4514 26.3771 63.3283 26.3512 63.1909 26.3512C63.0535 26.3512 62.929 26.3771 62.8175 26.429C62.7086 26.4782 62.6153 26.5495 62.5375 26.6429C62.4623 26.7362 62.404 26.8503 62.3625 26.9851C62.3211 27.1173 62.3003 27.2651 62.3003 27.4284Z" fill="black"/>
<path d="M66.1049 26.0556C66.4834 26.0556 66.7738 26.1282 66.976 26.2734C67.1808 26.416 67.2832 26.6299 67.2832 26.9151C67.2832 27.0706 67.2547 27.2041 67.1977 27.3156C67.1432 27.4245 67.0629 27.514 66.9566 27.584C66.8529 27.6514 66.7258 27.7006 66.5754 27.7317C66.4251 27.7629 66.2553 27.7784 66.066 27.7784H65.7666V28.7779H65.3893V26.1217C65.4956 26.0958 65.6136 26.079 65.7432 26.0712C65.8754 26.0608 65.996 26.0556 66.1049 26.0556ZM66.136 26.3862C65.9753 26.3862 65.8521 26.3901 65.7666 26.3979V27.4556H66.0504C66.1801 27.4556 66.2967 27.4479 66.4004 27.4323C66.5041 27.4141 66.591 27.3856 66.661 27.3467C66.7336 27.3053 66.7893 27.2495 66.8282 27.1795C66.8671 27.1095 66.8866 27.0201 66.8866 26.9112C66.8866 26.8075 66.8658 26.7219 66.8243 26.6545C66.7854 26.5871 66.731 26.534 66.661 26.4951C66.5936 26.4536 66.5145 26.4251 66.4238 26.4095C66.333 26.394 66.2371 26.3862 66.136 26.3862Z" fill="black"/>
<path d="M68.1053 28.7779V26.0829H69.7503V26.4056H68.4825V27.2067H69.6103V27.5217H68.4825V28.4551H69.8475V28.7779H68.1053Z" fill="black"/>
<path d="M72.8898 27.4284C72.8898 27.6617 72.8535 27.8653 72.7809 28.039C72.7083 28.2101 72.6059 28.3527 72.4737 28.4667C72.3415 28.5782 72.1833 28.6625 71.9992 28.7195C71.8152 28.774 71.6129 28.8012 71.3926 28.8012C71.2837 28.8012 71.1631 28.796 71.0309 28.7856C70.9013 28.7779 70.7833 28.761 70.677 28.7351V26.1217C70.7833 26.0958 70.9013 26.079 71.0309 26.0712C71.1631 26.0608 71.2837 26.0556 71.3926 26.0556C71.6129 26.0556 71.8152 26.0841 71.9992 26.1412C72.1833 26.1956 72.3415 26.2799 72.4737 26.394C72.6059 26.5054 72.7083 26.648 72.7809 26.8217C72.8535 26.9929 72.8898 27.1951 72.8898 27.4284ZM71.4237 28.4706C71.7815 28.4706 72.0485 28.3799 72.2248 28.1984C72.4011 28.0143 72.4892 27.7577 72.4892 27.4284C72.4892 27.0991 72.4011 26.8438 72.2248 26.6623C72.0485 26.4782 71.7815 26.3862 71.4237 26.3862C71.3174 26.3862 71.2344 26.3875 71.1748 26.3901C71.1177 26.3927 71.0776 26.3953 71.0542 26.3979V28.459C71.0776 28.4616 71.1177 28.4641 71.1748 28.4667C71.2344 28.4693 71.3174 28.4706 71.4237 28.4706Z" fill="black"/>
<path d="M75.7766 28.8012C75.7222 28.8012 75.6626 28.7999 75.5978 28.7973C75.5355 28.7947 75.472 28.7908 75.4072 28.7856C75.345 28.7804 75.2828 28.774 75.2205 28.7662C75.1583 28.7584 75.1013 28.748 75.0494 28.7351V26.1217C75.1013 26.1088 75.1583 26.0984 75.2205 26.0906C75.2828 26.0829 75.345 26.0764 75.4072 26.0712C75.472 26.066 75.5355 26.0621 75.5978 26.0595C75.66 26.0569 75.7183 26.0556 75.7728 26.0556C75.9283 26.0556 76.0735 26.0673 76.2083 26.0906C76.3457 26.114 76.4637 26.1541 76.5622 26.2112C76.6633 26.2656 76.7424 26.3382 76.7994 26.429C76.8565 26.5197 76.885 26.6312 76.885 26.7634C76.885 26.9112 76.85 27.033 76.78 27.129C76.71 27.2223 76.6166 27.2923 76.5 27.339C76.6581 27.3856 76.7839 27.4595 76.8772 27.5606C76.9705 27.6617 77.0172 27.8043 77.0172 27.9884C77.0172 28.258 76.9174 28.4616 76.7178 28.599C76.5207 28.7338 76.207 28.8012 75.7766 28.8012ZM75.4228 27.5217V28.4706C75.4513 28.4732 75.485 28.4758 75.5239 28.4784C75.5576 28.481 75.5965 28.4836 75.6405 28.4862C75.6872 28.4862 75.7404 28.4862 75.8 28.4862C75.9115 28.4862 76.0165 28.4797 76.115 28.4667C76.2161 28.4512 76.3042 28.4253 76.3794 28.389C76.4546 28.3527 76.5142 28.3021 76.5583 28.2373C76.605 28.1725 76.6283 28.0908 76.6283 27.9923C76.6283 27.9041 76.6115 27.8303 76.5778 27.7706C76.5441 27.7084 76.4948 27.6591 76.43 27.6229C76.3678 27.5866 76.2926 27.5606 76.2044 27.5451C76.1163 27.5295 76.0178 27.5217 75.9089 27.5217H75.4228ZM75.4228 27.2184H75.8194C75.9128 27.2184 76.0009 27.2119 76.0839 27.199C76.1668 27.186 76.2381 27.1627 76.2978 27.129C76.36 27.0953 76.4079 27.0512 76.4416 26.9967C76.4779 26.9423 76.4961 26.8736 76.4961 26.7906C76.4961 26.7129 76.4779 26.648 76.4416 26.5962C76.4054 26.5417 76.3548 26.499 76.29 26.4679C76.2278 26.4341 76.1539 26.4095 76.0683 26.394C75.9828 26.3784 75.892 26.3706 75.7961 26.3706C75.7002 26.3706 75.625 26.3719 75.5705 26.3745C75.5161 26.3771 75.4668 26.381 75.4228 26.3862V27.2184Z" fill="black"/>
<path d="M78.4413 28.7779V27.6967C78.2624 27.4193 78.0939 27.1458 77.9357 26.8762C77.7776 26.6066 77.6285 26.3421 77.4885 26.0829H77.9318C78.0303 26.2954 78.1405 26.5119 78.2624 26.7323C78.3842 26.9501 78.51 27.1601 78.6396 27.3623C78.7666 27.1601 78.8911 26.9501 79.0129 26.7323C79.1348 26.5119 79.2463 26.2954 79.3474 26.0829H79.7674C79.6274 26.3421 79.4783 26.6066 79.3202 26.8762C79.162 27.1432 78.9948 27.4141 78.8185 27.689V28.7779H78.4413Z" fill="black"/>
<path d="M83.5244 28.7779C83.4804 28.6612 83.4389 28.5471 83.4 28.4356C83.3611 28.3216 83.3209 28.2062 83.2794 28.0895H82.0583L81.8133 28.7779H81.4205C81.5243 28.4927 81.6215 28.2295 81.7122 27.9884C81.803 27.7447 81.8911 27.514 81.9767 27.2962C82.0648 27.0784 82.1517 26.871 82.2372 26.674C82.3228 26.4743 82.4122 26.2773 82.5056 26.0829H82.8517C82.945 26.2773 83.0344 26.4743 83.12 26.674C83.2056 26.871 83.2911 27.0784 83.3767 27.2962C83.4648 27.514 83.5543 27.7447 83.645 27.9884C83.7357 28.2295 83.833 28.4927 83.9367 28.7779H83.5244ZM83.1705 27.7784C83.0876 27.5529 83.0046 27.3351 82.9217 27.1251C82.8413 26.9125 82.757 26.709 82.6689 26.5145C82.5781 26.709 82.4913 26.9125 82.4083 27.1251C82.328 27.3351 82.2476 27.5529 82.1672 27.7784H83.1705Z" fill="black"/>
<path d="M85.3681 26.0556C85.7466 26.0556 86.037 26.1282 86.2392 26.2734C86.444 26.416 86.5464 26.6299 86.5464 26.9151C86.5464 27.0706 86.5179 27.2041 86.4609 27.3156C86.4064 27.4245 86.3261 27.514 86.2198 27.584C86.1161 27.6514 85.989 27.7006 85.8387 27.7317C85.6883 27.7629 85.5185 27.7784 85.3292 27.7784H85.0298V28.7779H84.6525V26.1217C84.7588 26.0958 84.8768 26.079 85.0064 26.0712C85.1387 26.0608 85.2592 26.0556 85.3681 26.0556ZM85.3992 26.3862C85.2385 26.3862 85.1153 26.3901 85.0298 26.3979V27.4556H85.3137C85.4433 27.4556 85.56 27.4479 85.6637 27.4323C85.7674 27.4141 85.8542 27.3856 85.9242 27.3467C85.9968 27.3053 86.0525 27.2495 86.0914 27.1795C86.1303 27.1095 86.1498 27.0201 86.1498 26.9112C86.1498 26.8075 86.129 26.7219 86.0876 26.6545C86.0487 26.5871 85.9942 26.534 85.9242 26.4951C85.8568 26.4536 85.7777 26.4251 85.687 26.4095C85.5963 26.394 85.5003 26.3862 85.3992 26.3862Z" fill="black"/>
<path d="M88.0841 26.0556C88.4626 26.0556 88.753 26.1282 88.9552 26.2734C89.16 26.416 89.2624 26.6299 89.2624 26.9151C89.2624 27.0706 89.2339 27.2041 89.1769 27.3156C89.1224 27.4245 89.0421 27.514 88.9358 27.584C88.8321 27.6514 88.705 27.7006 88.5547 27.7317C88.4043 27.7629 88.2345 27.7784 88.0452 27.7784H87.7458V28.7779H87.3685V26.1217C87.4748 26.0958 87.5928 26.079 87.7224 26.0712C87.8547 26.0608 87.9752 26.0556 88.0841 26.0556ZM88.1152 26.3862C87.9545 26.3862 87.8313 26.3901 87.7458 26.3979V27.4556H88.0297C88.1593 27.4556 88.276 27.4479 88.3797 27.4323C88.4834 27.4141 88.5702 27.3856 88.6402 27.3467C88.7128 27.3053 88.7685 27.2495 88.8074 27.1795C88.8463 27.1095 88.8658 27.0201 88.8658 26.9112C88.8658 26.8075 88.845 26.7219 88.8035 26.6545C88.7647 26.5871 88.7102 26.534 88.6402 26.4951C88.5728 26.4536 88.4937 26.4251 88.403 26.4095C88.3122 26.394 88.2163 26.3862 88.1152 26.3862Z" fill="black"/>
<path d="M90.0845 28.7779V26.0829H91.7101V26.4056H90.4618V27.2184H91.5701V27.5373H90.4618V28.7779H90.0845Z" fill="black"/>
<path d="M92.365 27.4284C92.365 27.1977 92.3987 26.9941 92.4662 26.8179C92.5362 26.6416 92.6295 26.4951 92.7461 26.3784C92.8654 26.2591 93.0028 26.1697 93.1584 26.1101C93.3165 26.0504 93.4837 26.0206 93.66 26.0206C93.8337 26.0206 93.9971 26.0504 94.15 26.1101C94.3056 26.1697 94.4417 26.2591 94.5584 26.3784C94.675 26.4951 94.7671 26.6416 94.8345 26.8179C94.9045 26.9941 94.9395 27.1977 94.9395 27.4284C94.9395 27.6591 94.9045 27.8627 94.8345 28.039C94.7671 28.2153 94.675 28.363 94.5584 28.4823C94.4417 28.599 94.3056 28.6871 94.15 28.7467C93.9971 28.8064 93.8337 28.8362 93.66 28.8362C93.4837 28.8362 93.3165 28.8064 93.1584 28.7467C93.0028 28.6871 92.8654 28.599 92.7461 28.4823C92.6295 28.363 92.5362 28.2153 92.4662 28.039C92.3987 27.8627 92.365 27.6591 92.365 27.4284ZM92.7617 27.4284C92.7617 27.5917 92.7824 27.7408 92.8239 27.8756C92.8654 28.0079 92.9237 28.1206 92.9989 28.214C93.0767 28.3073 93.17 28.3799 93.2789 28.4317C93.3904 28.481 93.5149 28.5056 93.6523 28.5056C93.7897 28.5056 93.9128 28.481 94.0217 28.4317C94.1306 28.3799 94.2226 28.3073 94.2978 28.214C94.3756 28.1206 94.4352 28.0079 94.4767 27.8756C94.5182 27.7408 94.5389 27.5917 94.5389 27.4284C94.5389 27.2651 94.5182 27.1173 94.4767 26.9851C94.4352 26.8503 94.3756 26.7362 94.2978 26.6429C94.2226 26.5495 94.1306 26.4782 94.0217 26.429C93.9128 26.3771 93.7897 26.3512 93.6523 26.3512C93.5149 26.3512 93.3904 26.3771 93.2789 26.429C93.17 26.4782 93.0767 26.5495 92.9989 26.6429C92.9237 26.7362 92.8654 26.8503 92.8239 26.9851C92.7824 27.1173 92.7617 27.2651 92.7617 27.4284Z" fill="black"/>
<path d="M97.3736 28.7779C97.3347 28.7001 97.288 28.6145 97.2336 28.5212C97.1791 28.4253 97.1195 28.3267 97.0547 28.2256C96.9899 28.1219 96.9225 28.0195 96.8525 27.9184C96.7824 27.8147 96.715 27.7175 96.6502 27.6267C96.5854 27.7175 96.518 27.8147 96.448 27.9184C96.378 28.0195 96.3106 28.1219 96.2458 28.2256C96.1836 28.3267 96.1239 28.4253 96.0669 28.5212C96.0125 28.6145 95.9658 28.7001 95.9269 28.7779H95.5108C95.6274 28.5497 95.7623 28.3177 95.9152 28.0817C96.0708 27.8458 96.2354 27.6034 96.4091 27.3545L95.5458 26.0829H95.9813L96.6463 27.0862L97.3036 26.0829H97.7352L96.8875 27.339C97.0637 27.5904 97.2297 27.8354 97.3852 28.074C97.5408 28.3125 97.6782 28.5471 97.7975 28.7779H97.3736Z" fill="black"/>
<path d="M100.435 28.5095C100.829 28.5095 101.026 28.3747 101.026 28.1051C101.026 28.0221 101.008 27.9521 100.972 27.8951C100.938 27.8354 100.892 27.7849 100.832 27.7434C100.772 27.6993 100.704 27.6617 100.626 27.6306C100.551 27.5995 100.47 27.5684 100.385 27.5373C100.286 27.5036 100.193 27.466 100.105 27.4245C100.017 27.3804 99.9401 27.3299 99.8753 27.2729C99.8105 27.2132 99.7586 27.1432 99.7197 27.0629C99.6835 26.9825 99.6653 26.8853 99.6653 26.7712C99.6653 26.5353 99.7457 26.3512 99.9064 26.219C100.067 26.0867 100.289 26.0206 100.571 26.0206C100.735 26.0206 100.883 26.0388 101.015 26.0751C101.15 26.1088 101.248 26.1464 101.31 26.1879L101.19 26.4951C101.135 26.4614 101.054 26.429 100.945 26.3979C100.838 26.3641 100.714 26.3473 100.571 26.3473C100.499 26.3473 100.431 26.3551 100.369 26.3706C100.307 26.3862 100.253 26.4095 100.206 26.4406C100.159 26.4717 100.122 26.5119 100.093 26.5612C100.067 26.6079 100.054 26.6636 100.054 26.7284C100.054 26.801 100.068 26.8619 100.097 26.9112C100.125 26.9604 100.166 27.0045 100.218 27.0434C100.269 27.0797 100.329 27.1134 100.396 27.1445C100.466 27.1756 100.543 27.2067 100.626 27.2379C100.743 27.2845 100.849 27.3312 100.945 27.3779C101.043 27.4245 101.128 27.4803 101.198 27.5451C101.27 27.6099 101.326 27.6877 101.365 27.7784C101.404 27.8666 101.423 27.9741 101.423 28.1012C101.423 28.3371 101.336 28.5186 101.163 28.6456C100.991 28.7727 100.749 28.8362 100.435 28.8362C100.329 28.8362 100.23 28.8284 100.14 28.8129C100.052 28.7999 99.9725 28.7843 99.9025 28.7662C99.8325 28.7454 99.7716 28.7247 99.7197 28.704C99.6705 28.6806 99.6316 28.6612 99.6031 28.6456L99.7159 28.3345C99.7755 28.3682 99.8662 28.4058 99.9881 28.4473C100.11 28.4888 100.259 28.5095 100.435 28.5095Z" fill="black"/>
<path d="M104.03 26.0829V26.4095H103.182V28.7779H102.805V26.4095H101.957V26.0829H104.03Z" fill="black"/>
<path d="M105.781 28.8362C105.605 28.8362 105.452 28.809 105.322 28.7545C105.193 28.7001 105.086 28.6262 105.003 28.5329C104.92 28.4369 104.858 28.3241 104.817 28.1945C104.778 28.0649 104.758 27.9249 104.758 27.7745V26.0829H105.136V27.7317C105.136 28.0014 105.195 28.1971 105.315 28.319C105.434 28.4408 105.589 28.5017 105.781 28.5017C105.877 28.5017 105.964 28.4875 106.042 28.459C106.122 28.4279 106.191 28.3812 106.248 28.319C106.305 28.2567 106.349 28.1777 106.38 28.0817C106.411 27.9832 106.427 27.8666 106.427 27.7317V26.0829H106.804V27.7745C106.804 27.9249 106.783 28.0649 106.742 28.1945C106.703 28.3241 106.641 28.4369 106.555 28.5329C106.472 28.6262 106.366 28.7001 106.236 28.7545C106.109 28.809 105.957 28.8362 105.781 28.8362Z" fill="black"/>
<path d="M110.018 27.4284C110.018 27.6617 109.982 27.8653 109.909 28.039C109.837 28.2101 109.734 28.3527 109.602 28.4667C109.47 28.5782 109.312 28.6625 109.127 28.7195C108.943 28.774 108.741 28.8012 108.521 28.8012C108.412 28.8012 108.291 28.796 108.159 28.7856C108.03 28.7779 107.912 28.761 107.805 28.7351V26.1217C107.912 26.0958 108.03 26.079 108.159 26.0712C108.291 26.0608 108.412 26.0556 108.521 26.0556C108.741 26.0556 108.943 26.0841 109.127 26.1412C109.312 26.1956 109.47 26.2799 109.602 26.394C109.734 26.5054 109.837 26.648 109.909 26.8217C109.982 26.9929 110.018 27.1951 110.018 27.4284ZM108.552 28.4706C108.91 28.4706 109.177 28.3799 109.353 28.1984C109.529 28.0143 109.617 27.7577 109.617 27.4284C109.617 27.0991 109.529 26.8438 109.353 26.6623C109.177 26.4782 108.91 26.3862 108.552 26.3862C108.446 26.3862 108.363 26.3875 108.303 26.3901C108.246 26.3927 108.206 26.3953 108.182 26.3979V28.459C108.206 28.4616 108.246 28.4641 108.303 28.4667C108.363 28.4693 108.446 28.4706 108.552 28.4706Z" fill="black"/>
<path d="M110.928 26.0829H111.305V28.7779H110.928V26.0829Z" fill="black"/>
<path d="M112.213 27.4284C112.213 27.1977 112.247 26.9941 112.314 26.8179C112.384 26.6416 112.478 26.4951 112.594 26.3784C112.713 26.2591 112.851 26.1697 113.006 26.1101C113.165 26.0504 113.332 26.0206 113.508 26.0206C113.682 26.0206 113.845 26.0504 113.998 26.1101C114.154 26.1697 114.29 26.2591 114.406 26.3784C114.523 26.4951 114.615 26.6416 114.683 26.8179C114.753 26.9941 114.788 27.1977 114.788 27.4284C114.788 27.6591 114.753 27.8627 114.683 28.039C114.615 28.2153 114.523 28.363 114.406 28.4823C114.29 28.599 114.154 28.6871 113.998 28.7467C113.845 28.8064 113.682 28.8362 113.508 28.8362C113.332 28.8362 113.165 28.8064 113.006 28.7467C112.851 28.6871 112.713 28.599 112.594 28.4823C112.478 28.363 112.384 28.2153 112.314 28.039C112.247 27.8627 112.213 27.6591 112.213 27.4284ZM112.61 27.4284C112.61 27.5917 112.631 27.7408 112.672 27.8756C112.713 28.0079 112.772 28.1206 112.847 28.214C112.925 28.3073 113.018 28.3799 113.127 28.4317C113.238 28.481 113.363 28.5056 113.5 28.5056C113.638 28.5056 113.761 28.481 113.87 28.4317C113.979 28.3799 114.071 28.3073 114.146 28.214C114.224 28.1206 114.283 28.0079 114.325 27.8756C114.366 27.7408 114.387 27.5917 114.387 27.4284C114.387 27.2651 114.366 27.1173 114.325 26.9851C114.283 26.8503 114.224 26.7362 114.146 26.6429C114.071 26.5495 113.979 26.4782 113.87 26.429C113.761 26.3771 113.638 26.3512 113.5 26.3512C113.363 26.3512 113.238 26.3771 113.127 26.429C113.018 26.4782 112.925 26.5495 112.847 26.6429C112.772 26.7362 112.713 26.8503 112.672 26.9851C112.631 27.1173 112.61 27.2651 112.61 27.4284Z" fill="black"/>
<path d="M34.5786 0C33.228 3.12641 31.8774 6.25281 30.5269 9.37922C31.8774 10.6966 33.228 11.9944 34.5786 13.3118C34.5786 8.86798 34.5786 4.44382 34.5786 0Z" fill="#C04827"/>
<path d="M34.5783 0L19.4438 7.07865V35L34.5783 0Z" fill="#F3712F"/>
<path d="M30.5067 9.37915L38.8883 17.4999L19.4438 34.9999L30.5067 9.37915Z" fill="#F4EED9"/>
<path d="M4.32959 0C5.68017 3.12641 7.03076 6.25281 8.38135 9.37922C7.03076 10.6966 5.68017 11.9944 4.32959 13.3118C4.32959 8.86798 4.32959 4.44382 4.32959 0Z" fill="#C04827"/>
<path d="M4.32959 0L19.4442 7.07865V35L4.32959 0Z" fill="#F15930"/>
<path d="M8.38157 9.37915L0 17.4999L19.4444 34.9999L8.38157 9.37915Z" fill="#F4EED9"/>
<path d="M15.5908 18.4831C15.3724 18.2668 14.995 18.2668 14.7567 18.4831L13.4259 19.8006L12.0952 18.4831C11.8767 18.2668 11.4994 18.2668 11.261 18.4831C11.0425 18.6994 11.0425 19.073 11.261 19.309L12.5917 20.6264L11.261 21.9438C11.0425 22.1601 11.0425 22.5337 11.261 22.7697C11.3802 22.8876 11.5192 22.9466 11.6781 22.9466C11.837 22.9466 11.976 22.8876 12.0952 22.7697L13.4259 21.4522L14.7567 22.7697C14.8758 22.8876 15.0148 22.9466 15.1737 22.9466C15.3326 22.9466 15.4717 22.8876 15.5908 22.7697C15.8093 22.5534 15.8093 22.1798 15.5908 21.9438L14.2403 20.6264L15.571 19.309C15.8292 19.0927 15.8292 18.7191 15.5908 18.4831Z" fill="black"/>
<path d="M25.621 18.3258C24.33 18.3258 23.2773 19.3679 23.2773 20.646C23.2773 21.9241 24.33 22.9663 25.621 22.9663C26.912 22.9663 27.9647 21.9241 27.9647 20.646C27.9647 19.3679 26.912 18.3258 25.621 18.3258ZM25.621 21.7865C24.9656 21.7865 24.4492 21.2752 24.4492 20.6264C24.4492 19.9775 24.9656 19.4663 25.621 19.4663C26.2764 19.4663 26.7928 19.9775 26.7928 20.6264C26.7928 21.2752 26.2764 21.7865 25.621 21.7865Z" fill="black"/>
<path d="M111.78 21.3888C111.436 20.7379 111.056 20.0813 110.64 19.4191C110.237 18.7457 109.767 18.0611 109.233 17.3653C109.067 17.5673 108.853 17.8479 108.592 18.207C108.343 18.5662 108.087 18.9478 107.826 19.3518C107.577 19.7558 107.339 20.143 107.114 20.5134C106.888 20.8838 106.722 21.1756 106.615 21.3888H103.444C103.967 20.4797 104.572 19.5258 105.261 18.5269C105.962 17.528 106.74 16.4674 107.594 15.3451L103.622 9.72217H106.989L109.393 13.3585L111.745 9.72217H114.915L110.996 15.3787C111.994 16.6021 112.831 17.7356 113.508 18.7794C114.185 19.812 114.719 20.6818 115.111 21.3888H111.78Z" fill="black"/>
<path d="M57.4986 21.3888C57.3766 20.9848 57.2379 20.5695 57.0826 20.143C56.9383 19.7166 56.7941 19.2901 56.6498 18.8636H52.1563C52.012 19.2901 51.8622 19.7166 51.7069 20.143C51.5627 20.5695 51.4295 20.9848 51.3075 21.3888H48.6113C49.044 20.1318 49.4546 18.9702 49.8429 17.904C50.2312 16.8378 50.6085 15.8333 50.9746 14.8905C51.3519 13.9478 51.718 13.0555 52.073 12.2138C52.4392 11.3608 52.8164 10.5302 53.2048 9.72217H55.6846C56.0618 10.5302 56.4335 11.3608 56.7996 12.2138C57.1658 13.0555 57.5319 13.9478 57.8981 14.8905C58.2753 15.8333 58.6581 16.8378 59.0464 17.904C59.4348 18.9702 59.8453 20.1318 60.278 21.3888H57.4986ZM54.3864 12.3653C54.3309 12.5336 54.2477 12.7637 54.1368 13.0555C54.0258 13.3473 53.8982 13.684 53.754 14.0656C53.6097 14.4472 53.4489 14.8681 53.2713 15.3282C53.1049 15.7884 52.9329 16.271 52.7554 16.776H56.0341C55.8565 16.271 55.6846 15.7884 55.5181 15.3282C55.3517 14.8681 55.1908 14.4472 55.0355 14.0656C54.8912 13.684 54.7637 13.3473 54.6527 13.0555C54.5417 12.7637 54.453 12.5336 54.3864 12.3653Z" fill="#F3712F"/>
<path d="M65.3499 9.72217C67.0971 9.72217 68.4385 10.0273 69.3741 10.6375C70.3097 11.2367 70.7775 12.2241 70.7775 13.6C70.7775 14.9869 70.304 15.991 69.3572 16.6123C68.4103 17.2226 67.0576 17.5277 65.2992 17.5277H64.4707V21.3888H61.833V10.0217C62.4079 9.91079 63.0166 9.83312 63.6591 9.78874C64.3016 9.74436 64.8652 9.72217 65.3499 9.72217ZM65.519 11.9357C65.3274 11.9357 65.1357 11.9412 64.9441 11.9523C64.7638 11.9634 64.606 11.9745 64.4707 11.9856V15.3142H65.2992C66.2122 15.3142 66.8998 15.1921 67.362 14.948C67.8241 14.7039 68.0552 14.249 68.0552 13.5833C68.0552 13.2616 67.9932 12.9953 67.8692 12.7845C67.7565 12.5737 67.5874 12.4072 67.362 12.2852C67.1478 12.152 66.8829 12.0633 66.5673 12.0189C66.2517 11.9634 65.9023 11.9357 65.519 11.9357Z" fill="#F3712F"/>
<path d="M75.8504 9.72217C77.5976 9.72217 78.939 10.0273 79.8746 10.6375C80.8101 11.2367 81.2779 12.2241 81.2779 13.6C81.2779 14.9869 80.8045 15.991 79.8577 16.6123C78.9108 17.2226 77.5581 17.5277 75.7997 17.5277H74.9712V21.3888H72.3335V10.0217C72.9084 9.91079 73.5171 9.83312 74.1596 9.78874C74.8021 9.74436 75.3657 9.72217 75.8504 9.72217ZM76.0195 11.9357C75.8279 11.9357 75.6362 11.9412 75.4446 11.9523C75.2643 11.9634 75.1064 11.9745 74.9712 11.9856V15.3142H75.7997C76.7127 15.3142 77.4003 15.1921 77.8625 14.948C78.3246 14.7039 78.5557 14.249 78.5557 13.5833C78.5557 13.2616 78.4937 12.9953 78.3697 12.7845C78.257 12.5737 78.0879 12.4072 77.8625 12.2852C77.6483 12.152 77.3834 12.0633 77.0678 12.0189C76.7522 11.9634 76.4027 11.9357 76.0195 11.9357Z" fill="#F3712F"/>
<path d="M94.4093 15.5636C94.4093 16.1122 94.4747 16.6071 94.6054 17.0481C94.7471 17.4892 94.9432 17.8711 95.1939 18.1938C95.4554 18.5058 95.7714 18.7478 96.1418 18.92C96.5123 19.0921 96.9373 19.1781 97.4167 19.1781C97.8853 19.1781 98.3048 19.0921 98.6753 18.92C99.0566 18.7478 99.3726 18.5058 99.6232 18.1938C99.8848 17.8711 100.081 17.4892 100.212 17.0481C100.353 16.6071 100.424 16.1122 100.424 15.5636C100.424 15.0149 100.353 14.5201 100.212 14.079C100.081 13.6272 99.8848 13.2453 99.6232 12.9333C99.3726 12.6106 99.0566 12.3632 98.6753 12.191C98.3048 12.0189 97.8853 11.9329 97.4167 11.9329C96.9373 11.9329 96.5123 12.0243 96.1418 12.2072C95.7714 12.3793 95.4554 12.6267 95.1939 12.9495C94.9432 13.2614 94.7471 13.6433 94.6054 14.0952C94.4747 14.5362 94.4093 15.0257 94.4093 15.5636ZM103.056 15.5636C103.056 16.521 102.909 17.3655 102.614 18.097C102.331 18.8178 101.939 19.4256 101.437 19.9204C100.936 20.4045 100.337 20.7703 99.6396 21.0177C98.9531 21.2651 98.2122 21.3888 97.4167 21.3888C96.6431 21.3888 95.913 21.2651 95.2265 21.0177C94.5401 20.7703 93.9408 20.4045 93.4286 19.9204C92.9165 19.4256 92.5133 18.8178 92.2191 18.097C91.9249 17.3655 91.7778 16.521 91.7778 15.5636C91.7778 14.6061 91.9304 13.767 92.2355 13.0463C92.5406 12.3148 92.9492 11.7016 93.4613 11.2067C93.9844 10.7119 94.5837 10.3407 95.2592 10.0933C95.9457 9.84588 96.6649 9.72217 97.4167 9.72217C98.1904 9.72217 98.9204 9.84588 99.6069 10.0933C100.293 10.3407 100.893 10.7119 101.405 11.2067C101.917 11.7016 102.32 12.3148 102.614 13.0463C102.909 13.767 103.056 14.6061 103.056 15.5636Z" fill="black"/>
<path d="M82.833 21.3888V9.72217H90.6108V11.9276H85.448V14.3686H90.0409V16.574H85.448V21.3888H82.833Z" fill="black"/>
</svg>
